{
    "fluentMethods": true,
    "clientRootFolder": "",
    "relationships": [
        {
            "relationshipName": "student",
            "otherEntityName": "student",
            "relationshipType": "many-to-one",
            "relationshipValidateRules": [
                "required"
            ],
            "otherEntityField": ""
        },
        {
            "relationshipName": "event",
            "otherEntityName": "event",
            "relationshipType": "many-to-one",
            "relationshipValidateRules": [
                "required"
            ],
            "otherEntityField": "id"
        }
    ],
    "fields": [
        {
            "fieldName": "minutes",
            "fieldType": "Integer",
            "fieldValidateRules": [
                "required"
            ]
        },
        {
            "fieldName": "googleEventId",
            "fieldType": "String"
        }
    ],
    "changelogDate": "20181105105626",
    "dto": "mapstruct",
    "searchEngine": false,
    "service": "serviceClass",
    "entityTableName": "event_student",
    "jpaMetamodelFiltering": true,
    "pagination": "pagination"
}
